dumpfiles/imm_algebraic_instr.vcd
$date
	Thu Jul 23 20:42:21 2026
$end
$version
	GTKWave Analyzer v3.4.0 (w)1999-2022 BSI
$end
$timescale
	1 s
$end
$scope module Z16CPU_tb $end
$scope module CPU $end
$var reg 16 $ r_pc[15:0] $end
$var wire 16 % w_instr[15:0] $end
$upscope $end
$var reg 1 # i_rst $end
$scope module CPU $end
$scope module DataMem $end
$var wire 16 & i_addr[15:0] $end
$var wire 1 ' i_wen $end
$var wire 16 ( i_data[15:0] $end
$upscope $end
$upscope $end
$var reg 1 " i_clk $end
$upscope $end
$enddefinitions $end
#0
$dumpvars
0"
bx &
bx $
bx %
bx (
0'
1#
$end
#1
b0 $
1"
b0 &
b1000000 %
b0 (
#2
0"
0#
#3
1"
b10 $
b1010000 %
#4
0"
#5
1"
b10000000 %
b100 $
#6
0"
#7
1"
b110 $
bx (
b111100001001001 %
b1111000 &
#8
0"
#9
1"
b1010111 &
b1000 $
b101011101011001 %
b0 (
#10
0"
#11
1"
b11 &
b1110001001 %
b1010 $
#12
0"
#13
1"
b1100 $
b11 (
b1000010001100010 %
b101101000 &
#14
0"
#15
1"
b10111011 &
b1110 $
b110010001011001 %
b101101000 (
#16
0"
#17
1"
b1000100011 &
b110010110110000 %
b10000 $
#18
0"
#19
1"
b10010 $
b1000100011 (
b1011000000001011 %
1'
b0 &
#20
0"
#21
1"
b10100 $
0'
b0 (
b0 %
#22
0"
#23
1"
bx %
bx &
bx (
b10110 $
#24
0"
#25
1"
b11000 $
#26
0"
#27
1"
b11010 $
#28
0"
#29
1"
b11100 $
#30
0"
#31
1"
b11110 $
#32
0"
#33
1"
b100000 $
#34
0"
#35
1"
b100010 $
#36
0"
#37
1"
b100100 $
#38
0"
#39
1"
b100110 $
#40
0"
#41
1"
b101000 $
#42
0"
#43
1"
b101010 $
#44
0"
#45
1"
b101100 $
#46
0"
#47
1"
b101110 $
#48
0"
#49
1"
b110000 $
#50
0"
#51
1"
b110010 $
#52
0"
#53
1"
b110100 $
#54
0"
#55
1"
b110110 $
#56
0"
#57
1"
b111000 $
#58
0"
#59
1"
b111010 $
#60
0"
#61
1"
b111100 $
#62
0"
#63
1"
b111110 $
#64
0"
#65
1"
b1000000 $
#66
0"
#67
1"
b1000010 $
#68
0"
#69
1"
b1000100 $
#70
0"
#71
1"
b1000110 $
#72
0"
#73
1"
b1001000 $
#74
0"
#75
1"
b1001010 $
#76
0"
#77
1"
b1001100 $
#78
0"
#79
1"
b1001110 $
#80
0"
#81
1"
b1010000 $
#82
0"
#83
1"
b1010010 $
#84
0"
#85
1"
b1010100 $
#86
0"
#87
1"
b1010110 $
#88
0"
#89
1"
b1011000 $
#90
0"
#91
1"
b1011010 $
#92
0"
#93
1"
b1011100 $
#94
0"
#95
1"
b1011110 $
#96
0"
#97
1"
b1100000 $
#98
0"
#99
1"
b1100010 $
#100
0"
#101
1"
b1100100 $
